…
Identify plots with invasives present.

``` r
inv_tpa <- tpa(db, bySpecies = T, treeDomain = SPCD %in% inv_spcd, byPlot = T)
```

<br>

Check result.

``` r
inv_tpa
```

    ## # A tibble: 2,413 x 9
    ##     YEAR pltID        SPCD COMMON_NAME     SCIENTIFIC_NAME  PLT_CN    TPA    BAA
    ##    <int> <chr>       <int> <chr>           <chr>             <dbl>  <dbl>  <dbl>
    ##  1  2007 3_48_113_91   993 chinaberry      Melia azedarach 1.30e14 468.   15.3  
    ##  2  2007 3_48_15_53    994 Chinese tallow~ Triadica sebif~ 1.30e14 150.    1.97 
    ##  3  2007 4_48_239_82   994 Chinese tallow~ Triadica sebif~ 1.30e14 117.   12.1  
    ##  4  2007 5_48_29_85    994 Chinese tallow~ Triadica sebif~ 1.30e14   6.02  1.39 
    ##  5  2008 3_48_181_63   993 chinaberry      Melia azedarach 1.30e14 225.    2.83 
    ##  6  2009 2_22_97_109   994 Chinese tallow~ Triadica sebif~ 2.06e14 756.   19.0  
    ##  7  2009 2_22_9_89     994 Chinese tallow~ Triadica sebif~ 1.54e14   6.02  0.922
    ##  8  2009 3_22_11_118   994 Chinese tallow~ Triadica sebif~ 1.54e14 375.    5.07 
    ##  9  2009 3_22_11_49    994 Chinese tallow~ Triadica sebif~ 1.54e14 225.    2.07 
    ## 10  2009 3_22_39_15    994 Chinese tallow~ Triadica sebif~ 1.54e14  99.0  10.3  
    ## # ... with 2,403 more rows, and 1 more variable: PROP_FOREST <dbl>
…
